{
  "boardWidth": 60.0,
  "boardHeight": 100.0,
  "numLayers": 2,
  "boardTemplate": null,
  "designRules": "MacroFab_2_Layer.dru",
  "omitBoundary": null,
  "packages": [
    {
      "name": "ElectricImp",
      "package": "__spaceClaim__",
      "pkg_idx": 0,
      "ComponentID": "09e8159a-d833-44f9-9786-2be70d120723",
      "RelComponentID": null,
      "width": 45.0,
      "height": 75.0,
      "koWidth": null,
      "koHeight": null,
      "originX": null,
      "originY": null,
      "x": 0.5,
      "y": 0.5,
      "rotation": 0,
      "layer": 0,
      "constraints": null,
      "multiLayer": null,
      "doNotPlace": null
    },
    {
      "name": "1012",
      "package": "AABATTERY",
      "pkg_idx": 1,
      "ComponentID": "{36c0982e-efc5-438e-b38a-ef1b160fc780}",
      "RelComponentID": "09e8159a-d833-44f9-9786-2be70d120723",
      "width": 40.84,
      "height": 69.72999999999999,
      "koWidth": 40.84,
      "koHeight": 69.72999999999999,
      "originX": 1.7,
      "originY": 0.4,
      "x": 8.18,
      "y": 7.035,
      "rotation": 2,
      "layer": 1,
      "constraints": [],
      "multiLayer": null,
      "doNotPlace": true
    },
    {
      "name": "C1$1",
      "package": "TANT_6032-METRIC",
      "pkg_idx": 2,
      "ComponentID": "{8793f5dc-9217-4856-ac00-348a1bd81671}",
      "RelComponentID": "09e8159a-d833-44f9-9786-2be70d120723",
      "width": 7.8292,
      "height": 2.5,
      "koWidth": 7.8292,
      "koHeight": 2.5,
      "originX": -0.4,
      "originY": 0.0,
      "x": 45.3854,
      "y": 42.35,
      "rotation": 0,
      "layer": 0,
      "constraints": [],
      "multiLayer": null,
      "doNotPlace": true
    },
    {
      "name": "C2$1",
      "package": "C_0805",
      "pkg_idx": 3,
      "ComponentID": "{104ff636-d608-4976-8547-486610981b82}",
      "RelComponentID": "09e8159a-d833-44f9-9786-2be70d120723",
      "width": 3.35,
      "height": 1.55,
      "koWidth": 3.35,
      "koHeight": 1.55,
      "originX": 0.0,
      "originY": 0.0,
      "x": 46.025,
      "y": 45.425,
      "rotation": 1,
      "layer": 0,
      "constraints": [],
      "multiLayer": null,
      "doNotPlace": true
    },
    {
      "name": "C3$1",
      "package": "C_0201",
      "pkg_idx": 4,
      "ComponentID": "{58eaa32e-175d-4f94-8b13-398ef840c7c1}",
      "RelComponentID": "09e8159a-d833-44f9-9786-2be70d120723",
      "width": 1.26,
      "height": 0.5,
      "koWidth": 1.26,
      "koHeight": 0.5,
      "originX": 0.0,
      "originY": 0.0,
      "x": 45.87,
      "y": 51.85,
      "rotation": 2,
      "layer": 0,
      "constraints": [],
      "multiLayer": null,
      "doNotPlace": true
    },
    {
      "name": "C4$1",
      "package": "C_0805",
      "pkg_idx": 5,
      "ComponentID": "{d45b50d4-c61a-405f-8852-9182e2d85c59}",
      "RelComponentID": "09e8159a-d833-44f9-9786-2be70d120723",
      "width": 3.35,
      "height": 1.55,
      "koWidth": 3.35,
      "koHeight": 1.55,
      "originX": 0.0,
      "originY": 0.0,
      "x": 47.625,
      "y": 53.325,
      "rotation": 3,
      "layer": 0,
      "constraints": [],
      "multiLayer": null,
      "doNotPlace": true
    },
    {
      "name": "C5",
      "package": "C_0805",
      "pkg_idx": 6,
      "ComponentID": "{383baada-a450-46cf-bcfc-26e146ec4410}",
      "RelComponentID": "09e8159a-d833-44f9-9786-2be70d120723",
      "width": 3.35,
      "height": 1.55,
      "koWidth": 3.35,
      "koHeight": 1.55,
      "originX": 0.0,
      "originY": 0.0,
      "x": 49.725,
      "y": 53.325,
      "rotation": 3,
      "layer": 0,
      "constraints": [],
      "multiLayer": null,
      "doNotPlace": true
    },
    {
      "name": "L1",
      "package": "L0603",
      "pkg_idx": 7,
      "ComponentID": "{86efc051-749a-4cd8-8d30-61cf9662c2bd}",
      "RelComponentID": "09e8159a-d833-44f9-9786-2be70d120723",
      "width": 3.3542,
      "height": 1.3,
      "koWidth": 3.3542,
      "koHeight": 1.3,
      "originX": -0.4,
      "originY": 0.0,
      "x": 47.7229,
      "y": 51.25,
      "rotation": 0,
      "layer": 0,
      "constraints": [],
      "multiLayer": null,
      "doNotPlace": true
    },
    {
      "name": "R1$1",
      "package": "R_0402",
      "pkg_idx": 8,
      "ComponentID": "{f8f61114-9892-43d7-9b45-9fee07d7c015}",
      "RelComponentID": "09e8159a-d833-44f9-9786-2be70d120723",
      "width": 1.7,
      "height": 0.5,
      "koWidth": 1.7,
      "koHeight": 0.5,
      "originX": 0.0,
      "originY": 0.0,
      "x": 45.65,
      "y": 50.95,
      "rotation": 2,
      "layer": 0,
      "constraints": [],
      "multiLayer": null,
      "doNotPlace": true
    },
    {
      "name": "R2$1",
      "package": "R_0402",
      "pkg_idx": 9,
      "ComponentID": "{3bbecc8e-1a9b-487b-93bd-8f58904b2e8d}",
      "RelComponentID": "09e8159a-d833-44f9-9786-2be70d120723",
      "width": 1.7,
      "height": 0.5,
      "koWidth": 1.7,
      "koHeight": 0.5,
      "originX": 0.0,
      "originY": 0.0,
      "x": 45.55,
      "y": 49.65,
      "rotation": 2,
      "layer": 0,
      "constraints": [],
      "multiLayer": null,
      "doNotPlace": true
    },
    {
      "name": "XC9128B45CAR-G",
      "package": "MSOP-10",
      "pkg_idx": 10,
      "ComponentID": "{749da6b1-a8c0-4f5a-b1ae-c3d28f8a0974}",
      "RelComponentID": "09e8159a-d833-44f9-9786-2be70d120723",
      "width": 5.7273999999999994,
      "height": 3.0,
      "koWidth": 5.7273999999999994,
      "koHeight": 3.0,
      "originX": -0.4,
      "originY": 0.0,
      "x": 48.5,
      "y": 45.6363,
      "rotation": 3,
      "layer": 0,
      "constraints": [],
      "multiLayer": null,
      "doNotPlace": true
    },
    {
      "name": "C1",
      "package": "C_0402",
      "pkg_idx": 11,
      "ComponentID": "{f89df60c-7c5d-4fb7-8dd6-1165f1749c48}",
      "RelComponentID": "09e8159a-d833-44f9-9786-2be70d120723",
      "width": 1.72,
      "height": 0.72,
      "koWidth": 1.72,
      "koHeight": 0.72,
      "originX": 0.0,
      "originY": 0.0,
      "x": 28.04,
      "y": 35.44,
      "rotation": 2,
      "layer": 0,
      "constraints": [],
      "multiLayer": null,
      "doNotPlace": true
    },
    {
      "name": "C2",
      "package": "C_0402",
      "pkg_idx": 12,
      "ComponentID": "{d06911b7-80e4-43c5-b271-ac80a5302bef}",
      "RelComponentID": "09e8159a-d833-44f9-9786-2be70d120723",
      "width": 1.72,
      "height": 0.72,
      "koWidth": 1.72,
      "koHeight": 0.72,
      "originX": 0.0,
      "originY": 0.0,
      "x": 44.14,
      "y": 53.84,
      "rotation": 3,
      "layer": 0,
      "constraints": [],
      "multiLayer": null,
      "doNotPlace": true
    },
    {
      "name": "C3",
      "package": "C_0402",
      "pkg_idx": 13,
      "ComponentID": "{cdd70d7c-31b3-4006-82cf-cf4622de026f}",
      "RelComponentID": "09e8159a-d833-44f9-9786-2be70d120723",
      "width": 1.72,
      "height": 0.72,
      "koWidth": 1.72,
      "koHeight": 0.72,
      "originX": 0.0,
      "originY": 0.0,
      "x": 28.04,
      "y": 33.64,
      "rotation": 2,
      "layer": 0,
      "constraints": [],
      "multiLayer": null,
      "doNotPlace": true
    },
    {
      "name": "C4",
      "package": "C_0402",
      "pkg_idx": 14,
      "ComponentID": "{e14b0886-f19e-4560-af77-ee2fe577daa6}",
      "RelComponentID": "09e8159a-d833-44f9-9786-2be70d120723",
      "width": 1.72,
      "height": 0.72,
      "koWidth": 1.72,
      "koHeight": 0.72,
      "originX": 0.0,
      "originY": 0.0,
      "x": 45.74,
      "y": 53.84,
      "rotation": 3,
      "layer": 0,
      "constraints": [],
      "multiLayer": null,
      "doNotPlace": true
    },
    {
      "name": "D1",
      "package": "BICOLOR_LED",
      "pkg_idx": 15,
      "ComponentID": "{e1d0d7e0-0a80-433a-b78f-73f83ee29ddf}",
      "RelComponentID": "09e8159a-d833-44f9-9786-2be70d120723",
      "width": 2.8042,
      "height": 1.6542,
      "koWidth": 2.8042,
      "koHeight": 1.9542,
      "originX": -0.3,
      "originY": 0.0,
      "x": 8.8729,
      "y": 51.9979,
      "rotation": 1,
      "layer": 0,
      "constraints": [],
      "multiLayer": null,
      "doNotPlace": true
    },
    {
      "name": "fid1",
      "package": "FIDUCIAL_0.75MM",
      "pkg_idx": 16,
      "ComponentID": "{6e6fdcbc-43ef-478b-814f-379213a6dd88}",
      "RelComponentID": "09e8159a-d833-44f9-9786-2be70d120723",
      "width": 1.5,
      "height": 1.5,
      "koWidth": 1.5,
      "koHeight": 1.5,
      "originX": 0.0,
      "originY": 0.0,
      "x": 0.75,
      "y": 0.75,
      "rotation": 0,
      "layer": 0,
      "constraints": [],
      "multiLayer": null,
      "doNotPlace": true
    },
    {
      "name": "fid2",
      "package": "FIDUCIAL_0.75MM",
      "pkg_idx": 17,
      "ComponentID": "{04bee947-5b39-4a00-a3e8-3c91ffa210e7}",
      "RelComponentID": "09e8159a-d833-44f9-9786-2be70d120723",
      "width": 1.5,
      "height": 1.5,
      "koWidth": 1.5,
      "koHeight": 1.5,
      "originX": 0.0,
      "originY": 0.0,
      "x": 57.75,
      "y": 77.75,
      "rotation": 0,
      "layer": 0,
      "constraints": [],
      "multiLayer": null,
      "doNotPlace": true
    },
    {
      "name": "fid3",
      "package": "FIDUCIAL_0.75MM",
      "pkg_idx": 18,
      "ComponentID": "{95589755-e690-4d4d-81fe-2d89f715ac9d}",
      "RelComponentID": "09e8159a-d833-44f9-9786-2be70d120723",
      "width": 1.5,
      "height": 1.5,
      "koWidth": 1.5,
      "koHeight": 1.5,
      "originX": 0.0,
      "originY": 0.0,
      "x": 0.75,
      "y": 77.65,
      "rotation": 0,
      "layer": 0,
      "constraints": [],
      "multiLayer": null,
      "doNotPlace": true
    },
    {
      "name": "fid4",
      "package": "FIDUCIAL_0.75MM",
      "pkg_idx": 19,
      "ComponentID": "{705e2f00-1aa7-4190-93ae-e6b182b15495}",
      "RelComponentID": "09e8159a-d833-44f9-9786-2be70d120723",
      "width": 1.5,
      "height": 1.5,
      "koWidth": 1.5,
      "koHeight": 1.5,
      "originX": 0.0,
      "originY": 0.0,
      "x": 57.75,
      "y": 0.75,
      "rotation": 0,
      "layer": 0,
      "constraints": [],
      "multiLayer": null,
      "doNotPlace": true
    },
    {
      "name": "IMP002-s",
      "package": "IMP002-S",
      "pkg_idx": 20,
      "ComponentID": "{eb5dad0f-7da1-48b0-9c29-056a74bcee59}",
      "RelComponentID": "09e8159a-d833-44f9-9786-2be70d120723",
      "width": 45.0,
      "height": 42.0,
      "koWidth": 45.0,
      "koHeight": 42.0,
      "originX": 0.6,
      "originY": 20.0,
      "x": 7.5,
      "y": 36.6,
      "rotation": 0,
      "layer": 0,
      "constraints": [],
      "multiLayer": null,
      "doNotPlace": true
    },
    {
      "name": "Q1",
      "package": "0805_PHOTOTRANS",
      "pkg_idx": 21,
      "ComponentID": "{56f451f1-68d3-495e-ab03-8686805db827}",
      "RelComponentID": "09e8159a-d833-44f9-9786-2be70d120723",
      "width": 5.2042,
      "height": 1.6042,
      "koWidth": 5.2042,
      "koHeight": 1.6042,
      "originX": -0.4,
      "originY": 0.1,
      "x": 12.7979,
      "y": 52.4979,
      "rotation": 1,
      "layer": 0,
      "constraints": [],
      "multiLayer": null,
      "doNotPlace": true
    },
    {
      "name": "R1",
      "package": "R_0402",
      "pkg_idx": 22,
      "ComponentID": "{6db71e55-c911-4a5c-acdf-733615790377}",
      "RelComponentID": "09e8159a-d833-44f9-9786-2be70d120723",
      "width": 1.7,
      "height": 0.5,
      "koWidth": 1.7,
      "koHeight": 0.5,
      "originX": 0.0,
      "originY": 0.0,
      "x": 10.75,
      "y": 52.65,
      "rotation": 3,
      "layer": 0,
      "constraints": [],
      "multiLayer": null,
      "doNotPlace": true
    },
    {
      "name": "R2",
      "package": "R_0402",
      "pkg_idx": 23,
      "ComponentID": "{c77dd2ca-ad01-455c-b19a-6646a65433a5}",
      "RelComponentID": "09e8159a-d833-44f9-9786-2be70d120723",
      "width": 1.7,
      "height": 0.5,
      "koWidth": 1.7,
      "koHeight": 0.5,
      "originX": 0.0,
      "originY": 0.0,
      "x": 8.75,
      "y": 55.25,
      "rotation": 1,
      "layer": 0,
      "constraints": [],
      "multiLayer": null,
      "doNotPlace": true
    },
    {
      "name": "R3",
      "package": "R_0402",
      "pkg_idx": 24,
      "ComponentID": "{be2abc25-3ad0-4e7d-b0b0-1f84c7d6f78e}",
      "RelComponentID": "09e8159a-d833-44f9-9786-2be70d120723",
      "width": 1.7,
      "height": 0.5,
      "koWidth": 1.7,
      "koHeight": 0.5,
      "originX": 0.0,
      "originY": 0.0,
      "x": 10.15,
      "y": 55.25,
      "rotation": 1,
      "layer": 0,
      "constraints": [],
      "multiLayer": null,
      "doNotPlace": true
    },
    {
      "name": "R4",
      "package": "R_0402",
      "pkg_idx": 25,
      "ComponentID": "{04724b87-0206-4563-b325-69cbbcb0943a}",
      "RelComponentID": "09e8159a-d833-44f9-9786-2be70d120723",
      "width": 1.7,
      "height": 0.5,
      "koWidth": 1.7,
      "koHeight": 0.5,
      "originX": 0.0,
      "originY": 0.0,
      "x": 36.55,
      "y": 34.05,
      "rotation": 1,
      "layer": 0,
      "constraints": [],
      "multiLayer": null,
      "doNotPlace": true
    },
    {
      "name": "R5",
      "package": "R_0402",
      "pkg_idx": 26,
      "ComponentID": "{8c9ff4d9-7193-45a0-bd5a-ca79ab033825}",
      "RelComponentID": "09e8159a-d833-44f9-9786-2be70d120723",
      "width": 1.7,
      "height": 0.5,
      "koWidth": 1.7,
      "koHeight": 0.5,
      "originX": 0.0,
      "originY": 0.0,
      "x": 23.05,
      "y": 34.15,
      "rotation": 1,
      "layer": 0,
      "constraints": [],
      "multiLayer": null,
      "doNotPlace": true
    },
    {
      "name": "R6",
      "package": "R_0402",
      "pkg_idx": 27,
      "ComponentID": "{68cdcbac-39f7-45f0-a2b2-accc1e69a5f9}",
      "RelComponentID": "09e8159a-d833-44f9-9786-2be70d120723",
      "width": 1.7,
      "height": 0.5,
      "koWidth": 1.7,
      "koHeight": 0.5,
      "originX": 0.0,
      "originY": 0.0,
      "x": 13.55,
      "y": 51.05,
      "rotation": 1,
      "layer": 0,
      "constraints": [],
      "multiLayer": null,
      "doNotPlace": true
    }
  ],
  "signals": [
    {
      "name": "N$0",
      "length": 0.0,
      "bends": -1,
      "RelComponentID": null,
      "pins": [
        {
          "name": "P$1",
          "gate": null,
          "pad": "P$1",
          "package": "1012"
        },
        {
          "name": "P$3",
          "gate": null,
          "pad": "P$3",
          "package": "1012"
        },
        {
          "name": "BAT",
          "gate": "G$1",
          "pad": "P$3",
          "package": "XC9128B45CAR-G"
        },
        {
          "name": "1",
          "gate": "G$1",
          "pad": "1",
          "package": "L1"
        },
        {
          "name": "+",
          "gate": "G$1",
          "pad": "P$1",
          "package": "C1$1"
        },
        {
          "name": "P$1",
          "gate": "G$1",
          "pad": "1",
          "package": "C2$1"
        }
      ],
      "wires": [],
      "vias": [],
      "polygons": []
    },
    {
      "name": "N$1",
      "length": 139.17183872084752,
      "bends": 29,
      "RelComponentID": "09e8159a-d833-44f9-9786-2be70d120723",
      "pins": [
        {
          "name": "P$2",
          "gate": null,
          "pad": "P$2",
          "package": "1012"
        },
        {
          "name": "P$4",
          "gate": null,
          "pad": "P$4",
          "package": "1012"
        },
        {
          "name": "AGND",
          "gate": "G$1",
          "pad": "P$7",
          "package": "XC9128B45CAR-G"
        },
        {
          "name": "1",
          "gate": "G$1",
          "pad": "P$1",
          "package": "R6"
        },
        {
          "name": "P$1",
          "gate": null,
          "pad": "P$1",
          "package": "IMP002-s"
        },
        {
          "name": "P$7",
          "gate": null,
          "pad": "P$7",
          "package": "IMP002-s"
        },
        {
          "name": "P$13",
          "gate": null,
          "pad": "P$13",
          "package": "IMP002-s"
        },
        {
          "name": "P$17",
          "gate": null,
          "pad": "P$17",
          "package": "IMP002-s"
        },
        {
          "name": "P$23",
          "gate": null,
          "pad": "P$23",
          "package": "IMP002-s"
        },
        {
          "name": "P$24",
          "gate": null,
          "pad": "P$24",
          "package": "IMP002-s"
        },
        {
          "name": "P$25",
          "gate": null,
          "pad": "P$25",
          "package": "IMP002-s"
        },
        {
          "name": "P$26",
          "gate": null,
          "pad": "P$26",
          "package": "IMP002-s"
        },
        {
          "name": "P$27",
          "gate": null,
          "pad": "P$27",
          "package": "IMP002-s"
        },
        {
          "name": "P$28",
          "gate": null,
          "pad": "P$28",
          "package": "IMP002-s"
        },
        {
          "name": "P$29",
          "gate": null,
          "pad": "P$29",
          "package": "IMP002-s"
        },
        {
          "name": "P$30",
          "gate": null,
          "pad": "P$30",
          "package": "IMP002-s"
        },
        {
          "name": "P$31",
          "gate": null,
          "pad": "P$31",
          "package": "IMP002-s"
        },
        {
          "name": "P$32",
          "gate": null,
          "pad": "P$32",
          "package": "IMP002-s"
        },
        {
          "name": "P$35",
          "gate": null,
          "pad": "P$35",
          "package": "IMP002-s"
        },
        {
          "name": "P$2",
          "gate": "G$1",
          "pad": "2",
          "package": "C2"
        },
        {
          "name": "P$2",
          "gate": "G$1",
          "pad": "2",
          "package": "C3"
        },
        {
          "name": "P$2",
          "gate": "G$1",
          "pad": "2",
          "package": "C4"
        },
        {
          "name": "P$2",
          "gate": "G$1",
          "pad": "2",
          "package": "C1"
        },
        {
          "name": "P$2",
          "gate": "G$1",
          "pad": "2",
          "package": "C5"
        },
        {
          "name": "P$2",
          "gate": "G$1",
          "pad": "2",
          "package": "C4$1"
        },
        {
          "name": "2",
          "gate": "G$1",
          "pad": "P$2",
          "package": "R2$1"
        },
        {
          "name": "PGND",
          "gate": "G$1",
          "pad": "P$1",
          "package": "XC9128B45CAR-G"
        },
        {
          "name": "MODE",
          "gate": "G$1",
          "pad": "P$9",
          "package": "XC9128B45CAR-G"
        },
        {
          "name": "AEN/",
          "gate": "G$1",
          "pad": "P$6",
          "package": "XC9128B45CAR-G"
        },
        {
          "name": "P$2",
          "gate": "G$1",
          "pad": "2",
          "package": "C2$1"
        },
        {
          "name": "-",
          "gate": "G$1",
          "pad": "P$2",
          "package": "C1$1"
        }
      ],
      "wires": [
        {
          "x1": 48.4,
          "y1": 54.0,
          "x2": 50.5,
          "y2": 54.0,
          "width": 0.0,
          "layer": 19,
          "curve": 0.0
        },
        {
          "x1": 46.1,
          "y1": 54.2,
          "x2": 48.4,
          "y2": 54.0,
          "width": 0.0,
          "layer": 19,
          "curve": 0.0
        },
        {
          "x1": 44.5,
          "y1": 54.2,
          "x2": 46.1,
          "y2": 54.2,
          "width": 0.0,
          "layer": 19,
          "curve": 0.0
        },
        {
          "x1": 42.0,
          "y1": 53.8,
          "x2": 44.5,
          "y2": 54.2,
          "width": 0.0,
          "layer": 19,
          "curve": 0.0
        },
        {
          "x1": 42.0,
          "y1": 52.1,
          "x2": 42.0,
          "y2": 53.8,
          "width": 0.0,
          "layer": 19,
          "curve": 0.0
        },
        {
          "x1": 42.0,
          "y1": 50.4,
          "x2": 42.0,
          "y2": 52.1,
          "width": 0.0,
          "layer": 19,
          "curve": 0.0
        },
        {
          "x1": 42.0,
          "y1": 48.7,
          "x2": 42.0,
          "y2": 50.4,
          "width": 0.0,
          "layer": 19,
          "curve": 0.0
        },
        {
          "x1": 42.0,
          "y1": 47.0,
          "x2": 42.0,
          "y2": 48.7,
          "width": 0.0,
          "layer": 19,
          "curve": 0.0
        },
        {
          "x1": 42.0,
          "y1": 45.3,
          "x2": 42.0,
          "y2": 47.0,
          "width": 0.0,
          "layer": 19,
          "curve": 0.0
        },
        {
          "x1": 42.0,
          "y1": 43.6,
          "x2": 42.0,
          "y2": 45.3,
          "width": 0.0,
          "layer": 19,
          "curve": 0.0
        },
        {
          "x1": 42.0,
          "y1": 41.9,
          "x2": 42.0,
          "y2": 43.6,
          "width": 0.0,
          "layer": 19,
          "curve": 0.0
        },
        {
          "x1": 42.0,
          "y1": 40.2,
          "x2": 42.0,
          "y2": 41.9,
          "width": 0.0,
          "layer": 19,
          "curve": 0.0
        },
        {
          "x1": 42.0,
          "y1": 38.5,
          "x2": 42.0,
          "y2": 40.2,
          "width": 0.0,
          "layer": 19,
          "curve": 0.0
        },
        {
          "x1": 51.0,
          "y1": 50.25,
          "x2": 50.5,
          "y2": 54.0,
          "width": 0.0,
          "layer": 19,
          "curve": 0.0
        },
        {
          "x1": 45.85,
          "y1": 49.9,
          "x2": 42.0,
          "y2": 50.4,
          "width": 0.0,
          "layer": 19,
          "curve": 0.0
        },
        {
          "x1": 46.8,
          "y1": 48.1,
          "x2": 45.85,
          "y2": 49.9,
          "width": 0.0,
          "layer": 19,
          "curve": 0.0
        },
        {
          "x1": 49.0,
          "y1": 45.95,
          "x2": 46.8,
          "y2": 48.1,
          "width": 0.0,
          "layer": 19,
          "curve": 0.0
        },
        {
          "x1": 49.5,
          "y1": 45.95,
          "x2": 49.0,
          "y2": 45.95,
          "width": 0.0,
          "layer": 19,
          "curve": 0.0
        },
        {
          "x1": 50.5,
          "y1": 45.95,
          "x2": 49.5,
          "y2": 45.95,
          "width": 0.0,
          "layer": 19,
          "curve": 0.0
        },
        {
          "x1": 52.24,
          "y1": 43.6,
          "x2": 50.5,
          "y2": 45.95,
          "width": 0.0,
          "layer": 19,
          "curve": 0.0
        },
        {
          "x1": 42.0,
          "y1": 58.9,
          "x2": 42.0,
          "y2": 53.8,
          "width": 0.0,
          "layer": 19,
          "curve": 0.0
        },
        {
          "x1": 28.3,
          "y1": 38.1,
          "x2": 42.0,
          "y2": 38.5,
          "width": 0.0,
          "layer": 19,
          "curve": 0.0
        },
        {
          "x1": 28.4,
          "y1": 35.8,
          "x2": 28.3,
          "y2": 38.1,
          "width": 0.0,
          "layer": 19,
          "curve": 0.0
        },
        {
          "x1": 28.4,
          "y1": 34.0,
          "x2": 28.4,
          "y2": 35.8,
          "width": 0.0,
          "layer": 19,
          "curve": 0.0
        },
        {
          "x1": 18.0,
          "y1": 38.5,
          "x2": 28.3,
          "y2": 38.1,
          "width": 0.0,
          "layer": 19,
          "curve": 0.0
        },
        {
          "x1": 18.0,
          "y1": 48.7,
          "x2": 18.0,
          "y2": 38.5,
          "width": 0.0,
          "layer": 19,
          "curve": 0.0
        },
        {
          "x1": 13.8,
          "y1": 51.35,
          "x2": 18.0,
          "y2": 48.7,
          "width": 0.0,
          "layer": 19,
          "curve": 0.0
        },
        {
          "x1": 18.0,
          "y1": 58.9,
          "x2": 13.8,
          "y2": 51.35,
          "width": 0.0,
          "layer": 19,
          "curve": 0.0
        },
        {
          "x1": 12.48,
          "y1": 73.06,
          "x2": 18.0,
          "y2": 58.9,
          "width": 0.0,
          "layer": 19,
          "curve": 0.0
        },
        {
          "x1": 41.32,
          "y1": 11.54,
          "x2": 28.4,
          "y2": 34.0,
          "width": 0.0,
          "layer": 19,
          "curve": 0.0
        }
      ],
      "vias": [],
      "polygons": []
    },
    {
      "name": "N$2",
      "length": 81.014336231187826,
      "bends": 15,
      "RelComponentID": "09e8159a-d833-44f9-9786-2be70d120723",
      "pins": [
        {
          "name": "P$1",
          "gate": "G$1",
          "pad": "1",
          "package": "C3$1"
        },
        {
          "name": "P$1",
          "gate": "G$1",
          "pad": "1",
          "package": "C5"
        },
        {
          "name": "P$1",
          "gate": "G$1",
          "pad": "1",
          "package": "C4$1"
        },
        {
          "name": "A2",
          "gate": "G$1",
          "pad": "P$2",
          "package": "D1"
        },
        {
          "name": "A1",
          "gate": "G$1",
          "pad": "P$1",
          "package": "D1"
        },
        {
          "name": "P$18",
          "gate": null,
          "pad": "P$18",
          "package": "IMP002-s"
        },
        {
          "name": "P$33",
          "gate": null,
          "pad": "P$33",
          "package": "IMP002-s"
        },
        {
          "name": "P$1",
          "gate": "G$1",
          "pad": "1",
          "package": "C2"
        },
        {
          "name": "P$1",
          "gate": "G$1",
          "pad": "1",
          "package": "C3"
        },
        {
          "name": "P$1",
          "gate": "G$1",
          "pad": "1",
          "package": "C4"
        },
        {
          "name": "P$1",
          "gate": "G$1",
          "pad": "1",
          "package": "C1"
        },
        {
          "name": "VDDA",
          "gate": "G$1",
          "pad": "P$34",
          "package": "IMP002-s"
        },
        {
          "name": "2",
          "gate": "G$1",
          "pad": "P$2",
          "package": "R1"
        },
        {
          "name": "1",
          "gate": "G$1",
          "pad": "P$1",
          "package": "R5"
        },
        {
          "name": "1",
          "gate": "G$1",
          "pad": "P$1",
          "package": "R4"
        },
        {
          "name": "1",
          "gate": "G$1",
          "pad": "P$1",
          "package": "R1$1"
        },
        {
          "name": "VOUT",
          "gate": "G$1",
          "pad": "P$10",
          "package": "XC9128B45CAR-G"
        }
      ],
      "wires": [
        {
          "x1": 48.4,
          "y1": 56.0,
          "x2": 50.5,
          "y2": 56.0,
          "width": 0.0,
          "layer": 19,
          "curve": 0.0
        },
        {
          "x1": 46.1,
          "y1": 55.2,
          "x2": 48.4,
          "y2": 56.0,
          "width": 0.0,
          "layer": 19,
          "curve": 0.0
        },
        {
          "x1": 44.5,
          "y1": 55.2,
          "x2": 46.1,
          "y2": 55.2,
          "width": 0.0,
          "layer": 19,
          "curve": 0.0
        },
        {
          "x1": 42.0,
          "y1": 55.5,
          "x2": 44.5,
          "y2": 55.2,
          "width": 0.0,
          "layer": 19,
          "curve": 0.0
        },
        {
          "x1": 42.0,
          "y1": 57.2,
          "x2": 42.0,
          "y2": 55.5,
          "width": 0.0,
          "layer": 19,
          "curve": 0.0
        },
        {
          "x1": 46.88,
          "y1": 52.1,
          "x2": 46.1,
          "y2": 55.2,
          "width": 0.0,
          "layer": 19,
          "curve": 0.0
        },
        {
          "x1": 47.05,
          "y1": 51.2,
          "x2": 46.88,
          "y2": 52.1,
          "width": 0.0,
          "layer": 19,
          "curve": 0.0
        },
        {
          "x1": 51.0,
          "y1": 45.95,
          "x2": 47.05,
          "y2": 51.2,
          "width": 0.0,
          "layer": 19,
          "curve": 0.0
        },
        {
          "x1": 36.8,
          "y1": 34.35,
          "x2": 51.0,
          "y2": 45.95,
          "width": 0.0,
          "layer": 19,
          "curve": 0.0
        },
        {
          "x1": 29.4,
          "y1": 34.0,
          "x2": 36.8,
          "y2": 34.35,
          "width": 0.0,
          "layer": 19,
          "curve": 0.0
        },
        {
          "x1": 29.4,
          "y1": 35.8,
          "x2": 29.4,
          "y2": 34.0,
          "width": 0.0,
          "layer": 19,
          "curve": 0.0
        },
        {
          "x1": 30.0,
          "y1": 38.1,
          "x2": 29.4,
          "y2": 35.8,
          "width": 0.0,
          "layer": 19,
          "curve": 0.0
        },
        {
          "x1": 23.3,
          "y1": 34.45,
          "x2": 29.4,
          "y2": 34.0,
          "width": 0.0,
          "layer": 19,
          "curve": 0.0
        },
        {
          "x1": 11.0,
          "y1": 52.95,
          "x2": 23.3,
          "y2": 34.45,
          "width": 0.0,
          "layer": 19,
          "curve": 0.0
        },
        {
          "x1": 10.125,
          "y1": 52.975,
          "x2": 11.0,
          "y2": 52.95,
          "width": 0.0,
          "layer": 19,
          "curve": 0.0
        },
        {
          "x1": 9.275,
          "y1": 52.975,
          "x2": 10.125,
          "y2": 52.975,
          "width": 0.0,
          "layer": 19,
          "curve": 0.0
        }
      ],
      "vias": [],
      "polygons": []
    },
    {
      "name": "N$3",
      "length": 0.0,
      "bends": -1,
      "RelComponentID": null,
      "pins": [
        {
          "name": "P$2",
          "gate": "G$1",
          "pad": "2",
          "package": "C3$1"
        },
        {
          "name": "1",
          "gate": "G$1",
          "pad": "P$1",
          "package": "R2$1"
        },
        {
          "name": "FB",
          "gate": "G$1",
          "pad": "P$8",
          "package": "XC9128B45CAR-G"
        },
        {
          "name": "2",
          "gate": "G$1",
          "pad": "P$2",
          "package": "R1$1"
        }
      ],
      "wires": [],
      "vias": [],
      "polygons": []
    },
    {
      "name": "N$4",
      "length": 0.0,
      "bends": -1,
      "RelComponentID": null,
      "pins": [
        {
          "name": "2",
          "gate": "G$1",
          "pad": "2",
          "package": "L1"
        },
        {
          "name": "LX",
          "gate": "G$1",
          "pad": "P$2",
          "package": "XC9128B45CAR-G"
        }
      ],
      "wires": [],
      "vias": [],
      "polygons": []
    },
    {
      "name": "N$5",
      "length": 31.554278632223554,
      "bends": 0,
      "RelComponentID": "09e8159a-d833-44f9-9786-2be70d120723",
      "pins": [
        {
          "name": "EN",
          "gate": "G$1",
          "pad": "P$4",
          "package": "XC9128B45CAR-G"
        },
        {
          "name": "POWER_EN",
          "gate": "G$1",
          "pad": "P$5",
          "package": "IMP002-s"
        }
      ],
      "wires": [
        {
          "x1": 18.0,
          "y1": 52.1,
          "x2": 49.5,
          "y2": 50.25,
          "width": 0.0,
          "layer": 19,
          "curve": 0.0
        }
      ],
      "vias": [],
      "polygons": []
    },
    {
      "name": "N$6",
      "length": 1.158123482190047,
      "bends": 0,
      "RelComponentID": "09e8159a-d833-44f9-9786-2be70d120723",
      "pins": [
        {
          "name": "C2",
          "gate": "G$1",
          "pad": "P$4",
          "package": "D1"
        },
        {
          "name": "1",
          "gate": "G$1",
          "pad": "P$1",
          "package": "R3"
        }
      ],
      "wires": [
        {
          "x1": 10.125,
          "y1": 54.425,
          "x2": 10.4,
          "y2": 55.55,
          "width": 0.0,
          "layer": 19,
          "curve": 0.0
        }
      ],
      "vias": [],
      "polygons": []
    },
    {
      "name": "N$7",
      "length": 1.158123482190047,
      "bends": 0,
      "RelComponentID": "09e8159a-d833-44f9-9786-2be70d120723",
      "pins": [
        {
          "name": "C1",
          "gate": "G$1",
          "pad": "P$3",
          "package": "D1"
        },
        {
          "name": "1",
          "gate": "G$1",
          "pad": "P$1",
          "package": "R2"
        }
      ],
      "wires": [
        {
          "x1": 9.275,
          "y1": 54.425,
          "x2": 9.0,
          "y2": 55.55,
          "width": 0.0,
          "layer": 19,
          "curve": 0.0
        }
      ],
      "vias": [],
      "polygons": []
    },
    {
      "name": "N$8",
      "length": 6.0771629306348469,
      "bends": 1,
      "RelComponentID": "09e8159a-d833-44f9-9786-2be70d120723",
      "pins": [
        {
          "name": "OPTO_IN",
          "gate": "G$1",
          "pad": "P$6",
          "package": "IMP002-s"
        },
        {
          "name": "2",
          "gate": "G$1",
          "pad": "P$2",
          "package": "R6"
        },
        {
          "name": "E",
          "gate": "G$1",
          "pad": "P$1",
          "package": "Q1"
        }
      ],
      "wires": [
        {
          "x1": 13.8,
          "y1": 52.45,
          "x2": 18.0,
          "y2": 50.4,
          "width": 0.0,
          "layer": 19,
          "curve": 0.0
        },
        {
          "x1": 13.7,
          "y1": 53.85,
          "x2": 13.8,
          "y2": 52.45,
          "width": 0.0,
          "layer": 19,
          "curve": 0.0
        }
      ],
      "vias": [],
      "polygons": []
    },
    {
      "name": "N$9",
      "length": 9.0731747475732,
      "bends": 0,
      "RelComponentID": "09e8159a-d833-44f9-9786-2be70d120723",
      "pins": [
        {
          "name": "LED_GREEN",
          "gate": "G$1",
          "pad": "P$3",
          "package": "IMP002-s"
        },
        {
          "name": "2",
          "gate": "G$1",
          "pad": "P$2",
          "package": "R2"
        }
      ],
      "wires": [
        {
          "x1": 9.0,
          "y1": 56.65,
          "x2": 18.0,
          "y2": 55.5,
          "width": 0.0,
          "layer": 19,
          "curve": 0.0
        }
      ],
      "vias": [],
      "polygons": []
    },
    {
      "name": "N$10",
      "length": 2.6499999999999986,
      "bends": 0,
      "RelComponentID": "09e8159a-d833-44f9-9786-2be70d120723",
      "pins": [
        {
          "name": "PIN8",
          "gate": "G$1",
          "pad": "P$22",
          "package": "IMP002-s"
        },
        {
          "name": "2",
          "gate": "G$1",
          "pad": "P$2",
          "package": "R4"
        }
      ],
      "wires": [
        {
          "x1": 36.8,
          "y1": 35.45,
          "x2": 36.8,
          "y2": 38.1,
          "width": 0.0,
          "layer": 19,
          "curve": 0.0
        }
      ],
      "vias": [],
      "polygons": []
    },
    {
      "name": "N$11",
      "length": 9.672795675886217,
      "bends": 1,
      "RelComponentID": "09e8159a-d833-44f9-9786-2be70d120723",
      "pins": [
        {
          "name": "LED_RED",
          "gate": "G$1",
          "pad": "P$4",
          "package": "IMP002-s"
        },
        {
          "name": "1",
          "gate": "G$1",
          "pad": "P$1",
          "package": "R1"
        },
        {
          "name": "2",
          "gate": "G$1",
          "pad": "P$2",
          "package": "R3"
        }
      ],
      "wires": [
        {
          "x1": 11.0,
          "y1": 54.05,
          "x2": 18.0,
          "y2": 53.8,
          "width": 0.0,
          "layer": 19,
          "curve": 0.0
        },
        {
          "x1": 10.4,
          "y1": 56.65,
          "x2": 11.0,
          "y2": 54.05,
          "width": 0.0,
          "layer": 19,
          "curve": 0.0
        }
      ],
      "vias": [],
      "polygons": []
    },
    {
      "name": "N$12",
      "length": 2.5519600310349735,
      "bends": 0,
      "RelComponentID": "09e8159a-d833-44f9-9786-2be70d120723",
      "pins": [
        {
          "name": "PIN9",
          "gate": "G$1",
          "pad": "P$14",
          "package": "IMP002-s"
        },
        {
          "name": "2",
          "gate": "G$1",
          "pad": "P$2",
          "package": "R5"
        }
      ],
      "wires": [
        {
          "x1": 23.3,
          "y1": 35.55,
          "x2": 23.2,
          "y2": 38.1,
          "width": 0.0,
          "layer": 19,
          "curve": 0.0
        }
      ],
      "vias": [],
      "polygons": []
    },
    {
      "name": "N$13",
      "length": 4.3002906878489044,
      "bends": 0,
      "RelComponentID": "09e8159a-d833-44f9-9786-2be70d120723",
      "pins": [
        {
          "name": "OPTO_BIAS",
          "gate": "G$1",
          "pad": "P$2",
          "package": "IMP002-s"
        },
        {
          "name": "C",
          "gate": "G$1",
          "pad": "P$2",
          "package": "Q1"
        }
      ],
      "wires": [
        {
          "x1": 13.7,
          "y1": 57.15,
          "x2": 18.0,
          "y2": 57.2,
          "width": 0.0,
          "layer": 19,
          "curve": 0.0
        }
      ],
      "vias": [],
      "polygons": []
    }
  ],
  "constraints": null,
  "border": null
}