<eagle version="6.5.0" xmlns="eagle">
  <drawing>
    <library>
      <packages>
        <package name="BICOLOR_LED" xmlns="eagle">
          <smd name="P$1" x="-0.725" y="0.425" dx="0.65" dy="0.85" layer="1" rot="R90" stop="no" />
          <smd name="P$2" x="-0.725" y="-0.425" dx="0.65" dy="0.85" layer="1" rot="R90" stop="no" />
          <smd name="P$3" x="0.725" y="0.425" dx="0.65" dy="0.85" layer="1" rot="R90" stop="no" />
          <smd name="P$4" x="0.725" y="-0.425" dx="0.65" dy="0.85" layer="1" rot="R90" stop="no" />
          <rectangle x1="-1.1" y1="-0.05" x2="-0.35" y2="0.9" layer="29" rot="R90" />
          <rectangle x1="-1.1" y1="-0.9" x2="-0.35" y2="0.05" layer="29" rot="R90" />
          <rectangle x1="0.35" y1="-0.9" x2="1.1" y2="0.05" layer="29" rot="R90" />
          <rectangle x1="0.35" y1="-0.05" x2="1.1" y2="0.9" layer="29" rot="R90" />
          <wire x1="-0.15" y1="-0.75" x2="0.15" y2="-0.75" width="0.127" layer="21" />
          <wire x1="-0.15" y1="0.75" x2="0.15" y2="0.75" width="0.127" layer="21" />
          <circle x="-1.5" y="0.75" radius="0.1542" width="0" layer="21" />
          <text x="-3.175" y="1.27" size="1.27" layer="25">&gt;NAME</text>
        </package>
      </packages>
      <symbols>
        <symbol name="BICOLORLED">
          <pin name="A1" x="5.08" y="12.7" length="middle" rot="R270" />
          <pin name="A2" x="-5.08" y="12.7" length="middle" rot="R270" />
          <pin name="C1" x="5.08" y="-12.7" length="middle" rot="R90" />
          <pin name="C2" x="-5.08" y="-12.7" length="middle" rot="R90" />
          <wire x1="-5.08" y1="7.62" x2="-5.08" y2="2.54" width="0.254" layer="94" />
          <wire x1="-5.08" y1="2.54" x2="-2.54" y2="2.54" width="0.254" layer="94" />
          <wire x1="-2.54" y1="2.54" x2="-5.08" y2="-2.54" width="0.254" layer="94" />
          <wire x1="-5.08" y1="-2.54" x2="-7.62" y2="2.54" width="0.254" layer="94" />
          <wire x1="-7.62" y1="2.54" x2="-5.08" y2="2.54" width="0.254" layer="94" />
          <wire x1="-5.08" y1="-2.54" x2="-5.08" y2="-7.62" width="0.254" layer="94" />
          <wire x1="5.08" y1="7.62" x2="5.08" y2="2.54" width="0.254" layer="94" />
          <wire x1="5.08" y1="2.54" x2="2.54" y2="2.54" width="0.254" layer="94" />
          <wire x1="2.54" y1="2.54" x2="5.08" y2="-2.54" width="0.254" layer="94" />
          <wire x1="5.08" y1="-2.54" x2="7.62" y2="2.54" width="0.254" layer="94" />
          <wire x1="7.62" y1="2.54" x2="5.08" y2="2.54" width="0.254" layer="94" />
          <wire x1="5.08" y1="-2.54" x2="5.08" y2="-7.62" width="0.254" layer="94" />
          <wire x1="2.54" y1="-2.54" x2="7.62" y2="-2.54" width="0.254" layer="94" />
          <wire x1="-7.62" y1="-2.54" x2="-2.54" y2="-2.54" width="0.254" layer="94" />
          <wire x1="10.16" y1="-10.16" x2="-10.16" y2="-10.16" width="0.254" layer="94" />
          <wire x1="-10.16" y1="-10.16" x2="-10.16" y2="10.16" width="0.254" layer="94" />
          <wire x1="-10.16" y1="10.16" x2="10.16" y2="10.16" width="0.254" layer="94" />
          <wire x1="10.16" y1="10.16" x2="10.16" y2="-10.16" width="0.254" layer="94" />
          <text x="-15.24" y="0" size="1.27" layer="95" rot="R90">&gt;NAME</text>
          <text x="-12.7" y="0" size="1.27" layer="96" rot="R90">&gt;VALUE</text>
        </symbol>
      </symbols>
      <devicesets>
        <deviceset name="LTST-C195KGJRKT">
          <gates>
            <gate name="G$1" symbol="BICOLORLED" x="0" y="0" />
          </gates>
          <devices>
            <device name="" package="BICOLOR_LED" xmlns="eagle">
              <connects>
                <connect gate="G$1" pin="A1" pad="P$1" />
                <connect gate="G$1" pin="A2" pad="P$2" />
                <connect gate="G$1" pin="C1" pad="P$3" />
                <connect gate="G$1" pin="C2" pad="P$4" />
              </connects>
              <technologies>
                <technology name="" />
              </technologies>
            </device>
          </devices>
        </deviceset>
      </devicesets>
    </library>
  </drawing>
</eagle>