{
  "boardWidth": 51.0,
  "boardHeight": 81.0,
  "numLayers": 2,
  "boardTemplate": null,
  "designRules": null,
  "omitBoundary": null,
  "packages": [
    {
      "name": "D1",
      "package": "BICOLOR_LED",
      "pkg_idx": 0,
      "ComponentID": "{e1d0d7e0-0a80-433a-b78f-73f83ee29ddf}",
      "RelComponentID": null,
      "width": 2.8042,
      "height": 1.6542,
      "koWidth": 2.8042,
      "koHeight": 1.9542,
      "originX": -0.3,
      "originY": 0.0,
      "x": 3.1729,
      "y": 42.6979,
      "rotation": 1,
      "layer": 0,
      "constraints": null,
      "multiLayer": null,
      "doNotPlace": null
    },
    {
      "name": "Q1",
      "package": "0805_PHOTOTRANS",
      "pkg_idx": 1,
      "ComponentID": "{56f451f1-68d3-495e-ab03-8686805db827}",
      "RelComponentID": null,
      "width": 5.2042,
      "height": 1.6042,
      "koWidth": 5.2042,
      "koHeight": 1.6042,
      "originX": -0.4,
      "originY": 0.1,
      "x": 7.0979,
      "y": 52.9979,
      "rotation": 1,
      "layer": 0,
      "constraints": null,
      "multiLayer": null,
      "doNotPlace": null
    },
    {
      "name": "R2",
      "package": "R_0402",
      "pkg_idx": 2,
      "ComponentID": "{c77dd2ca-ad01-455c-b19a-6646a65433a5}",
      "RelComponentID": null,
      "width": 1.7,
      "height": 0.5,
      "koWidth": 1.7,
      "koHeight": 0.5,
      "originX": 0.0,
      "originY": 0.0,
      "x": 3.25,
      "y": 46.25,
      "rotation": 0,
      "layer": 0,
      "constraints": null,
      "multiLayer": null,
      "doNotPlace": null
    },
    {
      "name": "C4",
      "package": "C_0402",
      "pkg_idx": 3,
      "ComponentID": "{e14b0886-f19e-4560-af77-ee2fe577daa6}",
      "RelComponentID": null,
      "width": 1.72,
      "height": 0.72,
      "koWidth": 1.72,
      "koHeight": 0.72,
      "originX": 0.0,
      "originY": 0.0,
      "x": 41.04,
      "y": 54.54,
      "rotation": 3,
      "layer": 0,
      "constraints": null,
      "multiLayer": null,
      "doNotPlace": null
    },
    {
      "name": "R5",
      "package": "R_0402",
      "pkg_idx": 4,
      "ComponentID": "{8c9ff4d9-7193-45a0-bd5a-ca79ab033825}",
      "RelComponentID": null,
      "width": 1.7,
      "height": 0.5,
      "koWidth": 1.7,
      "koHeight": 0.5,
      "originX": 0.0,
      "originY": 0.0,
      "x": 17.45,
      "y": 34.85,
      "rotation": 1,
      "layer": 0,
      "constraints": null,
      "multiLayer": null,
      "doNotPlace": null
    },
    {
      "name": "R6",
      "package": "R_0402",
      "pkg_idx": 5,
      "ComponentID": "{68cdcbac-39f7-45f0-a2b2-accc1e69a5f9}",
      "RelComponentID": null,
      "width": 1.7,
      "height": 0.5,
      "koWidth": 1.7,
      "koHeight": 0.5,
      "originX": 0.0,
      "originY": 0.0,
      "x": 8.95,
      "y": 43.75,
      "rotation": 1,
      "layer": 0,
      "constraints": null,
      "multiLayer": null,
      "doNotPlace": null
    },
    {
      "name": "IMP002-s",
      "package": "IMP002-S",
      "pkg_idx": 6,
      "ComponentID": "{eb5dad0f-7da1-48b0-9c29-056a74bcee59}",
      "RelComponentID": null,
      "width": 45.0,
      "height": 42.0,
      "koWidth": 45.0,
      "koHeight": 42.0,
      "originX": 0.6,
      "originY": 20.0,
      "x": 2.0,
      "y": 37.4,
      "rotation": 0,
      "layer": 0,
      "constraints": null,
      "multiLayer": null,
      "doNotPlace": null
    },
    {
      "name": "R4",
      "package": "R_0402",
      "pkg_idx": 7,
      "ComponentID": "{04724b87-0206-4563-b325-69cbbcb0943a}",
      "RelComponentID": null,
      "width": 1.7,
      "height": 0.5,
      "koWidth": 1.7,
      "koHeight": 0.5,
      "originX": 0.0,
      "originY": 0.0,
      "x": 31.05,
      "y": 34.85,
      "rotation": 1,
      "layer": 0,
      "constraints": null,
      "multiLayer": null,
      "doNotPlace": null
    },
    {
      "name": "R3",
      "package": "R_0402",
      "pkg_idx": 8,
      "ComponentID": "{be2abc25-3ad0-4e7d-b0b0-1f84c7d6f78e}",
      "RelComponentID": null,
      "width": 1.7,
      "height": 0.5,
      "koWidth": 1.7,
      "koHeight": 0.5,
      "originX": 0.0,
      "originY": 0.0,
      "x": 5.35,
      "y": 43.75,
      "rotation": 3,
      "layer": 0,
      "constraints": null,
      "multiLayer": null,
      "doNotPlace": null
    },
    {
      "name": "R1",
      "package": "R_0402",
      "pkg_idx": 9,
      "ComponentID": "{6db71e55-c911-4a5c-acdf-733615790377}",
      "RelComponentID": null,
      "width": 1.7,
      "height": 0.5,
      "koWidth": 1.7,
      "koHeight": 0.5,
      "originX": 0.0,
      "originY": 0.0,
      "x": 4.25,
      "y": 42.05,
      "rotation": 2,
      "layer": 0,
      "constraints": null,
      "multiLayer": null,
      "doNotPlace": null
    },
    {
      "name": "C1",
      "package": "C_0402",
      "pkg_idx": 10,
      "ComponentID": "{f89df60c-7c5d-4fb7-8dd6-1165f1749c48}",
      "RelComponentID": null,
      "width": 1.72,
      "height": 0.72,
      "koWidth": 1.72,
      "koHeight": 0.72,
      "originX": 0.0,
      "originY": 0.0,
      "x": 22.84,
      "y": 36.24,
      "rotation": 2,
      "layer": 0,
      "constraints": null,
      "multiLayer": null,
      "doNotPlace": null
    },
    {
      "name": "C2",
      "package": "C_0402",
      "pkg_idx": 11,
      "ComponentID": "{d06911b7-80e4-43c5-b271-ac80a5302bef}",
      "RelComponentID": null,
      "width": 1.72,
      "height": 0.72,
      "koWidth": 1.72,
      "koHeight": 0.72,
      "originX": 0.0,
      "originY": 0.0,
      "x": 39.14,
      "y": 54.54,
      "rotation": 3,
      "layer": 0,
      "constraints": null,
      "multiLayer": null,
      "doNotPlace": null
    },
    {
      "name": "C3",
      "package": "C_0402",
      "pkg_idx": 12,
      "ComponentID": "{cdd70d7c-31b3-4006-82cf-cf4622de026f}",
      "RelComponentID": null,
      "width": 1.72,
      "height": 0.72,
      "koWidth": 1.72,
      "koHeight": 0.72,
      "originX": 0.0,
      "originY": 0.0,
      "x": 22.94,
      "y": 34.44,
      "rotation": 2,
      "layer": 0,
      "constraints": null,
      "multiLayer": null,
      "doNotPlace": null
    }
  ],
  "signals": [
    {
      "name": "N$0",
      "length": 86.864366814008619,
      "bends": 33,
      "RelComponentID": null,
      "pins": [
        {
          "name": "A1",
          "gate": "G$1",
          "pad": "P$1",
          "package": "D1"
        },
        {
          "name": "A2",
          "gate": "G$1",
          "pad": "P$2",
          "package": "D1"
        },
        {
          "name": "P$18",
          "gate": null,
          "pad": "P$18",
          "package": "IMP002-s"
        },
        {
          "name": "P$33",
          "gate": null,
          "pad": "P$33",
          "package": "IMP002-s"
        },
        {
          "name": "VDDA",
          "gate": "G$1",
          "pad": "P$34",
          "package": "IMP002-s"
        },
        {
          "name": "P$1",
          "gate": "G$1",
          "pad": "1",
          "package": "C2"
        },
        {
          "name": "P$1",
          "gate": "G$1",
          "pad": "1",
          "package": "C3"
        },
        {
          "name": "P$1",
          "gate": "G$1",
          "pad": "1",
          "package": "C4"
        },
        {
          "name": "P$1",
          "gate": "G$1",
          "pad": "1",
          "package": "C1"
        },
        {
          "name": "2",
          "gate": "G$1",
          "pad": "P$2",
          "package": "R1"
        },
        {
          "name": "1",
          "gate": "G$1",
          "pad": "P$1",
          "package": "R5"
        },
        {
          "name": "1",
          "gate": "G$1",
          "pad": "P$1",
          "package": "R4"
        }
      ],
      "wires": [
        {
          "x1": 41.4,
          "y1": 55.9,
          "x2": 39.5,
          "y2": 55.9,
          "width": 0.1524,
          "layer": 1,
          "curve": 0.0
        },
        {
          "x1": 39.1,
          "y1": 56.3,
          "x2": 39.5,
          "y2": 55.9,
          "width": 0.1524,
          "layer": 1,
          "curve": 0.0
        },
        {
          "x1": 36.5,
          "y1": 56.3,
          "x2": 39.1,
          "y2": 56.3,
          "width": 0.1524,
          "layer": 1,
          "curve": 0.0
        },
        {
          "x1": 36.5,
          "y1": 56.3,
          "x2": 36.5,
          "y2": 58.0,
          "width": 0.1524,
          "layer": 1,
          "curve": 0.0
        },
        {
          "x1": 4.55,
          "y1": 43.65,
          "x2": 4.55,
          "y2": 42.3,
          "width": 0.1524,
          "layer": 1,
          "curve": 0.0
        },
        {
          "x1": 4.45,
          "y1": 43.65,
          "x2": 4.55,
          "y2": 43.65,
          "width": 0.1524,
          "layer": 1,
          "curve": 0.0
        },
        {
          "x1": 4.45,
          "y1": 43.65,
          "x2": 4.425,
          "y2": 43.675,
          "width": 0.1524,
          "layer": 1,
          "curve": 0.0
        },
        {
          "x1": 4.35,
          "y1": 43.7,
          "x2": 3.6,
          "y2": 43.7,
          "width": 0.1524,
          "layer": 1,
          "curve": 0.0
        },
        {
          "x1": 3.6,
          "y1": 43.7,
          "x2": 3.575,
          "y2": 43.675,
          "width": 0.1524,
          "layer": 1,
          "curve": 0.0
        },
        {
          "x1": 4.35,
          "y1": 43.7,
          "x2": 4.425,
          "y2": 43.675,
          "width": 0.1524,
          "layer": 1,
          "curve": 0.0
        },
        {
          "x1": 17.95,
          "y1": 35.4,
          "x2": 17.7,
          "y2": 35.15,
          "width": 0.1524,
          "layer": 1,
          "curve": 0.0
        },
        {
          "x1": 23.75,
          "y1": 35.4,
          "x2": 21.7,
          "y2": 35.4,
          "width": 0.1524,
          "layer": 1,
          "curve": 0.0
        },
        {
          "x1": 21.7,
          "y1": 35.4,
          "x2": 17.95,
          "y2": 35.4,
          "width": 0.1524,
          "layer": 1,
          "curve": 0.0
        },
        {
          "x1": 24.3,
          "y1": 34.85,
          "x2": 23.75,
          "y2": 35.4,
          "width": 0.1524,
          "layer": 1,
          "curve": 0.0
        },
        {
          "x1": 24.3,
          "y1": 34.8,
          "x2": 24.3,
          "y2": 34.85,
          "width": 0.1524,
          "layer": 1,
          "curve": 0.0
        },
        {
          "x1": 31.05,
          "y1": 34.9,
          "x2": 31.3,
          "y2": 35.15,
          "width": 0.1524,
          "layer": 1,
          "curve": 0.0
        },
        {
          "x1": 24.35,
          "y1": 34.9,
          "x2": 31.05,
          "y2": 34.9,
          "width": 0.1524,
          "layer": 1,
          "curve": 0.0
        },
        {
          "x1": 24.35,
          "y1": 34.9,
          "x2": 24.3,
          "y2": 34.8,
          "width": 0.1524,
          "layer": 1,
          "curve": 0.0
        },
        {
          "x1": 24.2,
          "y1": 35.45,
          "x2": 24.2,
          "y2": 36.6,
          "width": 0.1524,
          "layer": 1,
          "curve": 0.0
        },
        {
          "x1": 23.8,
          "y1": 35.45,
          "x2": 24.2,
          "y2": 35.45,
          "width": 0.1524,
          "layer": 1,
          "curve": 0.0
        },
        {
          "x1": 23.8,
          "y1": 35.45,
          "x2": 23.75,
          "y2": 35.4,
          "width": 0.1524,
          "layer": 1,
          "curve": 0.0
        },
        {
          "x1": 11.65,
          "y1": 35.2,
          "x2": 4.55,
          "y2": 42.3,
          "width": 0.1524,
          "layer": 1,
          "curve": 0.0
        },
        {
          "x1": 17.65,
          "y1": 35.2,
          "x2": 11.65,
          "y2": 35.2,
          "width": 0.1524,
          "layer": 1,
          "curve": 0.0
        },
        {
          "x1": 17.65,
          "y1": 35.2,
          "x2": 17.7,
          "y2": 35.15,
          "width": 0.1524,
          "layer": 1,
          "curve": 0.0
        },
        {
          "x1": 24.5,
          "y1": 36.65,
          "x2": 24.5,
          "y2": 38.9,
          "width": 0.1524,
          "layer": 1,
          "curve": 0.0
        },
        {
          "x1": 24.25,
          "y1": 36.65,
          "x2": 24.5,
          "y2": 36.65,
          "width": 0.1524,
          "layer": 1,
          "curve": 0.0
        },
        {
          "x1": 24.25,
          "y1": 36.65,
          "x2": 24.2,
          "y2": 36.6,
          "width": 0.1524,
          "layer": 1,
          "curve": 0.0
        },
        {
          "x1": 41.8,
          "y1": 55.5,
          "x2": 41.4,
          "y2": 55.9,
          "width": 0.1524,
          "layer": 1,
          "curve": 0.0
        },
        {
          "x1": 41.85,
          "y1": 55.5,
          "x2": 41.8,
          "y2": 55.5,
          "width": 0.1524,
          "layer": 1,
          "curve": 0.0
        },
        {
          "x1": 42.0,
          "y1": 55.35,
          "x2": 41.85,
          "y2": 55.5,
          "width": 0.1524,
          "layer": 1,
          "curve": 0.0
        },
        {
          "x1": 42.0,
          "y1": 33.85,
          "x2": 42.0,
          "y2": 55.35,
          "width": 0.1524,
          "layer": 1,
          "curve": 0.0
        },
        {
          "x1": 23.2,
          "y1": 33.85,
          "x2": 42.0,
          "y2": 33.85,
          "width": 0.1524,
          "layer": 1,
          "curve": 0.0
        },
        {
          "x1": 21.7,
          "y1": 35.35,
          "x2": 23.2,
          "y2": 33.85,
          "width": 0.1524,
          "layer": 1,
          "curve": 0.0
        },
        {
          "x1": 21.7,
          "y1": 35.35,
          "x2": 21.7,
          "y2": 35.4,
          "width": 0.1524,
          "layer": 1,
          "curve": 0.0
        }
      ],
      "vias": [],
      "polygons": []
    },
    {
      "name": "N$1",
      "length": 1.1853553390593261,
      "bends": 1,
      "RelComponentID": null,
      "pins": [
        {
          "name": "C2",
          "gate": "G$1",
          "pad": "P$4",
          "package": "D1"
        },
        {
          "name": "1",
          "gate": "G$1",
          "pad": "P$1",
          "package": "R3"
        }
      ],
      "wires": [
        {
          "x1": 4.45,
          "y1": 45.15,
          "x2": 5.6,
          "y2": 45.15,
          "width": 0.1524,
          "layer": 1,
          "curve": 0.0
        },
        {
          "x1": 4.45,
          "y1": 45.15,
          "x2": 4.425,
          "y2": 45.125,
          "width": 0.1524,
          "layer": 1,
          "curve": 0.0
        }
      ],
      "vias": [],
      "polygons": []
    },
    {
      "name": "N$2",
      "length": 1.3853553390593281,
      "bends": 1,
      "RelComponentID": null,
      "pins": [
        {
          "name": "C1",
          "gate": "G$1",
          "pad": "P$3",
          "package": "D1"
        },
        {
          "name": "1",
          "gate": "G$1",
          "pad": "P$1",
          "package": "R2"
        }
      ],
      "wires": [
        {
          "x1": 3.55,
          "y1": 45.15,
          "x2": 3.55,
          "y2": 46.5,
          "width": 0.1524,
          "layer": 1,
          "curve": 0.0
        },
        {
          "x1": 3.55,
          "y1": 45.15,
          "x2": 3.575,
          "y2": 45.125,
          "width": 0.1524,
          "layer": 1,
          "curve": 0.0
        }
      ],
      "vias": [],
      "polygons": []
    },
    {
      "name": "N$3",
      "length": 13.67071067811866,
      "bends": 4,
      "RelComponentID": null,
      "pins": [
        {
          "name": "E",
          "gate": "G$1",
          "pad": "P$1",
          "package": "Q1"
        },
        {
          "name": "2",
          "gate": "G$1",
          "pad": "P$2",
          "package": "R6"
        },
        {
          "name": "OPTO_IN",
          "gate": "G$1",
          "pad": "P$6",
          "package": "IMP002-s"
        }
      ],
      "wires": [
        {
          "x1": 9.2,
          "y1": 51.2,
          "x2": 9.2,
          "y2": 45.15,
          "width": 0.1524,
          "layer": 1,
          "curve": 0.0
        },
        {
          "x1": 12.5,
          "y1": 51.2,
          "x2": 9.2,
          "y2": 51.2,
          "width": 0.1524,
          "layer": 1,
          "curve": 0.0
        },
        {
          "x1": 8.0,
          "y1": 51.25,
          "x2": 8.0,
          "y2": 54.35,
          "width": 0.1524,
          "layer": 1,
          "curve": 0.0
        },
        {
          "x1": 9.15,
          "y1": 51.25,
          "x2": 8.0,
          "y2": 51.25,
          "width": 0.1524,
          "layer": 1,
          "curve": 0.0
        },
        {
          "x1": 9.15,
          "y1": 51.25,
          "x2": 9.2,
          "y2": 51.2,
          "width": 0.1524,
          "layer": 1,
          "curve": 0.0
        }
      ],
      "vias": [],
      "polygons": []
    },
    {
      "name": "N$4",
      "length": 4.6449747468305844,
      "bends": 1,
      "RelComponentID": null,
      "pins": [
        {
          "name": "C",
          "gate": "G$1",
          "pad": "P$2",
          "package": "Q1"
        },
        {
          "name": "OPTO_BIAS",
          "gate": "G$1",
          "pad": "P$2",
          "package": "IMP002-s"
        }
      ],
      "wires": [
        {
          "x1": 8.35,
          "y1": 58.0,
          "x2": 8.0,
          "y2": 57.65,
          "width": 0.1524,
          "layer": 1,
          "curve": 0.0
        },
        {
          "x1": 12.5,
          "y1": 58.0,
          "x2": 8.35,
          "y2": 58.0,
          "width": 0.1524,
          "layer": 1,
          "curve": 0.0
        }
      ],
      "vias": [],
      "polygons": []
    },
    {
      "name": "N$5",
      "length": 16.390559159102153,
      "bends": 2,
      "RelComponentID": null,
      "pins": [
        {
          "name": "2",
          "gate": "G$1",
          "pad": "P$2",
          "package": "R2"
        },
        {
          "name": "LED_GREEN",
          "gate": "G$1",
          "pad": "P$3",
          "package": "IMP002-s"
        }
      ],
      "wires": [
        {
          "x1": 6.8,
          "y1": 48.65,
          "x2": 4.65,
          "y2": 46.5,
          "width": 0.1524,
          "layer": 1,
          "curve": 0.0
        },
        {
          "x1": 6.8,
          "y1": 56.3,
          "x2": 6.8,
          "y2": 48.65,
          "width": 0.1524,
          "layer": 1,
          "curve": 0.0
        },
        {
          "x1": 12.5,
          "y1": 56.3,
          "x2": 6.8,
          "y2": 56.3,
          "width": 0.1524,
          "layer": 1,
          "curve": 0.0
        }
      ],
      "vias": [],
      "polygons": []
    },
    {
      "name": "N$6",
      "length": 102.11614716074872,
      "bends": 45,
      "RelComponentID": null,
      "pins": [
        {
          "name": "P$2",
          "gate": "G$1",
          "pad": "2",
          "package": "C4"
        },
        {
          "name": "P$2",
          "gate": "G$1",
          "pad": "2",
          "package": "C2"
        },
        {
          "name": "P$2",
          "gate": "G$1",
          "pad": "2",
          "package": "C1"
        },
        {
          "name": "1",
          "gate": "G$1",
          "pad": "P$1",
          "package": "R6"
        },
        {
          "name": "P$1",
          "gate": null,
          "pad": "P$1",
          "package": "IMP002-s"
        },
        {
          "name": "P$7",
          "gate": null,
          "pad": "P$7",
          "package": "IMP002-s"
        },
        {
          "name": "P$13",
          "gate": null,
          "pad": "P$13",
          "package": "IMP002-s"
        },
        {
          "name": "P$17",
          "gate": null,
          "pad": "P$17",
          "package": "IMP002-s"
        },
        {
          "name": "P$23",
          "gate": null,
          "pad": "P$23",
          "package": "IMP002-s"
        },
        {
          "name": "P$24",
          "gate": null,
          "pad": "P$24",
          "package": "IMP002-s"
        },
        {
          "name": "P$25",
          "gate": null,
          "pad": "P$25",
          "package": "IMP002-s"
        },
        {
          "name": "P$26",
          "gate": null,
          "pad": "P$26",
          "package": "IMP002-s"
        },
        {
          "name": "P$27",
          "gate": null,
          "pad": "P$27",
          "package": "IMP002-s"
        },
        {
          "name": "P$28",
          "gate": null,
          "pad": "P$28",
          "package": "IMP002-s"
        },
        {
          "name": "P$29",
          "gate": null,
          "pad": "P$29",
          "package": "IMP002-s"
        },
        {
          "name": "P$30",
          "gate": null,
          "pad": "P$30",
          "package": "IMP002-s"
        },
        {
          "name": "P$31",
          "gate": null,
          "pad": "P$31",
          "package": "IMP002-s"
        },
        {
          "name": "P$32",
          "gate": null,
          "pad": "P$32",
          "package": "IMP002-s"
        },
        {
          "name": "P$35",
          "gate": null,
          "pad": "P$35",
          "package": "IMP002-s"
        },
        {
          "name": "P$2",
          "gate": "G$1",
          "pad": "2",
          "package": "C3"
        }
      ],
      "wires": [
        {
          "x1": 23.2,
          "y1": 38.9,
          "x2": 23.2,
          "y2": 36.6,
          "width": 0.1524,
          "layer": 1,
          "curve": 0.0
        },
        {
          "x1": 22.8,
          "y1": 38.9,
          "x2": 23.2,
          "y2": 38.9,
          "width": 0.1524,
          "layer": 1,
          "curve": 0.0
        },
        {
          "x1": 10.75,
          "y1": 42.5,
          "x2": 9.2,
          "y2": 44.05,
          "width": 0.1524,
          "layer": 1,
          "curve": 0.0
        },
        {
          "x1": 10.75,
          "y1": 39.3,
          "x2": 10.75,
          "y2": 42.5,
          "width": 0.1524,
          "layer": 1,
          "curve": 0.0
        },
        {
          "x1": 12.5,
          "y1": 39.3,
          "x2": 10.75,
          "y2": 39.3,
          "width": 0.1524,
          "layer": 1,
          "curve": 0.0
        },
        {
          "x1": 11.55,
          "y1": 48.55,
          "x2": 12.5,
          "y2": 49.5,
          "width": 0.1524,
          "layer": 1,
          "curve": 0.0
        },
        {
          "x1": 10.9,
          "y1": 48.55,
          "x2": 11.55,
          "y2": 48.55,
          "width": 0.1524,
          "layer": 1,
          "curve": 0.0
        },
        {
          "x1": 9.7,
          "y1": 47.35,
          "x2": 10.9,
          "y2": 48.55,
          "width": 0.1524,
          "layer": 1,
          "curve": 0.0
        },
        {
          "x1": 9.7,
          "y1": 44.1,
          "x2": 9.7,
          "y2": 47.35,
          "width": 0.1524,
          "layer": 1,
          "curve": 0.0
        },
        {
          "x1": 9.25,
          "y1": 44.1,
          "x2": 9.7,
          "y2": 44.1,
          "width": 0.1524,
          "layer": 1,
          "curve": 0.0
        },
        {
          "x1": 9.25,
          "y1": 44.1,
          "x2": 9.2,
          "y2": 44.05,
          "width": 0.1524,
          "layer": 1,
          "curve": 0.0
        },
        {
          "x1": 13.45,
          "y1": 58.75,
          "x2": 12.5,
          "y2": 59.7,
          "width": 0.1524,
          "layer": 1,
          "curve": 0.0
        },
        {
          "x1": 14.1,
          "y1": 58.75,
          "x2": 13.45,
          "y2": 58.75,
          "width": 0.1524,
          "layer": 1,
          "curve": 0.0
        },
        {
          "x1": 14.25,
          "y1": 58.6,
          "x2": 14.1,
          "y2": 58.75,
          "width": 0.1524,
          "layer": 1,
          "curve": 0.0
        },
        {
          "x1": 14.25,
          "y1": 49.55,
          "x2": 14.25,
          "y2": 58.6,
          "width": 0.1524,
          "layer": 1,
          "curve": 0.0
        },
        {
          "x1": 12.55,
          "y1": 49.55,
          "x2": 14.25,
          "y2": 49.55,
          "width": 0.1524,
          "layer": 1,
          "curve": 0.0
        },
        {
          "x1": 12.55,
          "y1": 49.55,
          "x2": 12.5,
          "y2": 49.5,
          "width": 0.1524,
          "layer": 1,
          "curve": 0.0
        },
        {
          "x1": 22.75,
          "y1": 40.65,
          "x2": 22.75,
          "y2": 38.95,
          "width": 0.1524,
          "layer": 1,
          "curve": 0.0
        },
        {
          "x1": 14.5,
          "y1": 40.65,
          "x2": 22.75,
          "y2": 40.65,
          "width": 0.1524,
          "layer": 1,
          "curve": 0.0
        },
        {
          "x1": 13.2,
          "y1": 39.35,
          "x2": 14.5,
          "y2": 40.65,
          "width": 0.1524,
          "layer": 1,
          "curve": 0.0
        },
        {
          "x1": 12.55,
          "y1": 39.35,
          "x2": 13.2,
          "y2": 39.35,
          "width": 0.1524,
          "layer": 1,
          "curve": 0.0
        },
        {
          "x1": 22.75,
          "y1": 38.95,
          "x2": 22.8,
          "y2": 38.9,
          "width": 0.1524,
          "layer": 1,
          "curve": 0.0
        },
        {
          "x1": 12.55,
          "y1": 39.35,
          "x2": 12.5,
          "y2": 39.3,
          "width": 0.1524,
          "layer": 1,
          "curve": 0.0
        },
        {
          "x1": 41.4,
          "y1": 54.9,
          "x2": 39.5,
          "y2": 54.9,
          "width": 0.1524,
          "layer": 1,
          "curve": 0.0
        },
        {
          "x1": 39.2,
          "y1": 54.6,
          "x2": 39.5,
          "y2": 54.9,
          "width": 0.1524,
          "layer": 1,
          "curve": 0.0
        },
        {
          "x1": 36.5,
          "y1": 54.6,
          "x2": 39.2,
          "y2": 54.6,
          "width": 0.1524,
          "layer": 1,
          "curve": 0.0
        },
        {
          "x1": 36.5,
          "y1": 54.6,
          "x2": 36.5,
          "y2": 52.9,
          "width": 0.1524,
          "layer": 1,
          "curve": 0.0
        },
        {
          "x1": 35.55,
          "y1": 58.75,
          "x2": 36.5,
          "y2": 59.7,
          "width": 0.1524,
          "layer": 1,
          "curve": 0.0
        },
        {
          "x1": 34.9,
          "y1": 58.75,
          "x2": 35.55,
          "y2": 58.75,
          "width": 0.1524,
          "layer": 1,
          "curve": 0.0
        },
        {
          "x1": 34.05,
          "y1": 57.9,
          "x2": 34.9,
          "y2": 58.75,
          "width": 0.1524,
          "layer": 1,
          "curve": 0.0
        },
        {
          "x1": 34.05,
          "y1": 54.65,
          "x2": 34.05,
          "y2": 57.9,
          "width": 0.1524,
          "layer": 1,
          "curve": 0.0
        },
        {
          "x1": 36.45,
          "y1": 54.65,
          "x2": 34.05,
          "y2": 54.65,
          "width": 0.1524,
          "layer": 1,
          "curve": 0.0
        },
        {
          "x1": 36.45,
          "y1": 54.65,
          "x2": 36.5,
          "y2": 54.6,
          "width": 0.1524,
          "layer": 1,
          "curve": 0.0
        },
        {
          "x1": 23.3,
          "y1": 34.2,
          "x2": 23.3,
          "y2": 34.8,
          "width": 0.1524,
          "layer": 1,
          "curve": 0.0
        },
        {
          "x1": 31.4,
          "y1": 34.2,
          "x2": 23.3,
          "y2": 34.2,
          "width": 0.1524,
          "layer": 1,
          "curve": 0.0
        },
        {
          "x1": 36.5,
          "y1": 39.3,
          "x2": 31.4,
          "y2": 34.2,
          "width": 0.1524,
          "layer": 1,
          "curve": 0.0
        },
        {
          "x1": 36.5,
          "y1": 39.3,
          "x2": 36.5,
          "y2": 41.0,
          "width": 0.1524,
          "layer": 1,
          "curve": 0.0
        },
        {
          "x1": 36.5,
          "y1": 41.0,
          "x2": 36.5,
          "y2": 42.7,
          "width": 0.1524,
          "layer": 1,
          "curve": 0.0
        },
        {
          "x1": 36.5,
          "y1": 42.7,
          "x2": 36.5,
          "y2": 44.4,
          "width": 0.1524,
          "layer": 1,
          "curve": 0.0
        },
        {
          "x1": 36.5,
          "y1": 44.4,
          "x2": 36.5,
          "y2": 46.1,
          "width": 0.1524,
          "layer": 1,
          "curve": 0.0
        },
        {
          "x1": 36.5,
          "y1": 46.1,
          "x2": 36.5,
          "y2": 47.8,
          "width": 0.1524,
          "layer": 1,
          "curve": 0.0
        },
        {
          "x1": 36.5,
          "y1": 47.8,
          "x2": 36.5,
          "y2": 49.5,
          "width": 0.1524,
          "layer": 1,
          "curve": 0.0
        },
        {
          "x1": 36.5,
          "y1": 49.5,
          "x2": 36.5,
          "y2": 51.2,
          "width": 0.1524,
          "layer": 1,
          "curve": 0.0
        },
        {
          "x1": 36.5,
          "y1": 51.2,
          "x2": 36.5,
          "y2": 52.9,
          "width": 0.1524,
          "layer": 1,
          "curve": 0.0
        },
        {
          "x1": 36.45,
          "y1": 40.65,
          "x2": 22.75,
          "y2": 40.65,
          "width": 0.1524,
          "layer": 1,
          "curve": 0.0
        },
        {
          "x1": 36.45,
          "y1": 40.65,
          "x2": 36.5,
          "y2": 41.0,
          "width": 0.1524,
          "layer": 1,
          "curve": 0.0
        }
      ],
      "vias": [],
      "polygons": []
    },
    {
      "name": "N$7",
      "length": 2.6499999999999986,
      "bends": 0,
      "RelComponentID": null,
      "pins": [
        {
          "name": "2",
          "gate": "G$1",
          "pad": "P$2",
          "package": "R5"
        },
        {
          "name": "PIN9",
          "gate": "G$1",
          "pad": "P$14",
          "package": "IMP002-s"
        }
      ],
      "wires": [
        {
          "x1": 17.7,
          "y1": 38.9,
          "x2": 17.7,
          "y2": 36.25,
          "width": 0.1524,
          "layer": 1,
          "curve": 0.0
        }
      ],
      "vias": [],
      "polygons": []
    },
    {
      "name": "N$8",
      "length": 19.210941201739843,
      "bends": 6,
      "RelComponentID": null,
      "pins": [
        {
          "name": "LED_RED",
          "gate": "G$1",
          "pad": "P$4",
          "package": "IMP002-s"
        },
        {
          "name": "1",
          "gate": "G$1",
          "pad": "P$1",
          "package": "R1"
        },
        {
          "name": "2",
          "gate": "G$1",
          "pad": "P$2",
          "package": "R3"
        }
      ],
      "wires": [
        {
          "x1": 5.65,
          "y1": 44.05,
          "x2": 5.65,
          "y2": 42.3,
          "width": 0.1524,
          "layer": 1,
          "curve": 0.0
        },
        {
          "x1": 5.6,
          "y1": 44.05,
          "x2": 5.65,
          "y2": 44.05,
          "width": 0.1524,
          "layer": 1,
          "curve": 0.0
        },
        {
          "x1": 7.15,
          "y1": 45.55,
          "x2": 5.7,
          "y2": 44.1,
          "width": 0.1524,
          "layer": 1,
          "curve": 0.0
        },
        {
          "x1": 7.15,
          "y1": 55.2,
          "x2": 7.15,
          "y2": 45.55,
          "width": 0.1524,
          "layer": 1,
          "curve": 0.0
        },
        {
          "x1": 11.9,
          "y1": 55.2,
          "x2": 7.15,
          "y2": 55.2,
          "width": 0.1524,
          "layer": 1,
          "curve": 0.0
        },
        {
          "x1": 12.5,
          "y1": 54.6,
          "x2": 11.9,
          "y2": 55.2,
          "width": 0.1524,
          "layer": 1,
          "curve": 0.0
        },
        {
          "x1": 5.7,
          "y1": 44.1,
          "x2": 5.6,
          "y2": 44.05,
          "width": 0.1524,
          "layer": 1,
          "curve": 0.0
        }
      ],
      "vias": [],
      "polygons": []
    },
    {
      "name": "N$9",
      "length": 2.6499999999999986,
      "bends": 0,
      "RelComponentID": null,
      "pins": [
        {
          "name": "PIN8",
          "gate": "G$1",
          "pad": "P$22",
          "package": "IMP002-s"
        },
        {
          "name": "2",
          "gate": "G$1",
          "pad": "P$2",
          "package": "R4"
        }
      ],
      "wires": [
        {
          "x1": 31.3,
          "y1": 38.9,
          "x2": 31.3,
          "y2": 36.25,
          "width": 0.1524,
          "layer": 1,
          "curve": 0.0
        }
      ],
      "vias": [],
      "polygons": []
    }
  ],
  "constraints": null,
  "border": null
}