<eagle version="6.5.0" xmlns="eagle">
  <drawing>
    <library>
      <packages>
        <package name="AABATTERY" xmlns="eagle">
          <smd name="P$1" x="-14.42" y="30.76" dx="6.35" dy="7.34" layer="1" />
          <smd name="P$2" x="-14.42" y="-30.76" dx="6.35" dy="7.34" layer="1" />
          <smd name="P$3" x="14.42" y="-30.76" dx="6.35" dy="7.34" layer="1" />
          <smd name="P$4" x="14.42" y="30.76" dx="6.35" dy="7.34" layer="1" />
          <hole x="21.15" y="27.09" drill="1.98" />
          <wire x1="-15" y1="25" x2="-15" y2="-25" width="0.127" layer="21" />
          <wire x1="15" y1="25" x2="15" y2="-25" width="0.127" layer="21" />
          <wire x1="10" y1="30" x2="-10" y2="30" width="0.127" layer="21" />
          <wire x1="10" y1="-30" x2="-10" y2="-30" width="0.127" layer="21" />
          <circle x="-18.4" y="35" radius="0.3" width="0" layer="21" />
          <text x="-7.06" y="35.93" size="3" layer="25" font="vector" ratio="15">&gt;NAME</text>
        </package>
      </packages>
      <symbols>
        <symbol name="BATTERY_CONNECT">
          <pin name="POS" x="-2.54" y="5.08" length="short" direction="pas" rot="R270" />
          <pin name="NEG" x="2.54" y="5.08" length="short" direction="pas" rot="R270" />
          <wire x1="-7.62" y1="2.54" x2="-7.62" y2="-7.62" width="0.254" layer="94" />
          <wire x1="-7.62" y1="-7.62" x2="7.62" y2="-7.62" width="0.254" layer="94" />
          <wire x1="7.62" y1="-7.62" x2="7.62" y2="2.54" width="0.254" layer="94" />
          <wire x1="7.62" y1="2.54" x2="-7.62" y2="2.54" width="0.254" layer="94" />
        </symbol>
      </symbols>
      <devicesets>
        <deviceset name="1012-KEYSTONE">
          <gates>
            <gate name="G$1" symbol="BATTERY_CONNECT" x="0" y="2.54" />
          </gates>
          <devices>
            <device name="" package="AABATTERY" xmlns="eagle">
              <connects>
                <connect gate="G$1" pin="NEG" pad="P$2 P$4" />
                <connect gate="G$1" pin="POS" pad="P$1 P$3" />
              </connects>
              <technologies>
                <technology name="" />
              </technologies>
            </device>
          </devices>
        </deviceset>
      </devicesets>
    </library>
  </drawing>
</eagle>